{
	"data": {
		"card": {
			"title": "SukaCita Camping Ground",
			"location": "Poncokusumo",
			"price": "100.000",
			"image": "100.000",
			"rating": "4",
			"jumlah_ulasan": "100+",
			"jumlah_rekomendasi": "95",
			"description": "Saksikan matahari terbit dan terbenam di balik pegunungan, melihat hamparan bunga edelweis yang menakjubkan, dan mendengarkan alunan riak air yang jernih dari sungai yang mengalir hanya 30 menit dari pusat Kota Malang.",
			"jumlah_tersisa": "1",
			"ketinggian": "870"
		},
		"dummyFaq": [
			{
				"heading": "Apa itu Bumi Perkemahan Ledok Ombo?",
				"content": "Bumi Perkemahan Ledok Ombo adalah tempat camping yang terletak di kaki Gunung Arjuno di Poncokusumo, Kabupaten Malang, Jawa Timur. Tempat ini menawarkan berbagai paket camping dan kegiatan outdoor lainnya."
			},
			{
				"heading": "Apa saja fasilitas yang tersedia di Bumi Perkemahan Ledok Ombo?",
				"content": "Bumi Perkemahan Ledok Ombo adalah tempat camping yang terletak di kaki Gunung Arjuno di Poncokusumo, Kabupaten Malang, Jawa Timur. Tempat ini menawarkan berbagai paket camping dan kegiatan outdoor lainnya."
			},
			{
				"heading": "Apa saja kegiatan outdoor yang tersedia di Bumi Perkemahan Ledok Ombo?",
				"content": "Bumi Perkemahan Ledok Ombo adalah tempat camping yang terletak di kaki Gunung Arjuno di Poncokusumo, Kabupaten Malang, Jawa Timur. Tempat ini menawarkan berbagai paket camping dan kegiatan outdoor lainnya."
			},
			{
				"heading": "Apakah tersedia paket camping untuk keluarga?",
				"content": "Bumi Perkemahan Ledok Ombo adalah tempat camping yang terletak di kaki Gunung Arjuno di Poncokusumo, Kabupaten Malang, Jawa Timur. Tempat ini menawarkan berbagai paket camping dan kegiatan outdoor lainnya."
			},
			{
				"heading": "Apa saja paket yang ditawarkan di Bumi Perkemahan Ledok Ombo?",
				"content": "Bumi Perkemahan Ledok Ombo adalah tempat camping yang terletak di kaki Gunung Arjuno di Poncokusumo, Kabupaten Malang, Jawa Timur. Tempat ini menawarkan berbagai paket camping dan kegiatan outdoor lainnya."
			}
		]
	}
}
